<svg xmlns="http://www.w3.org/2000/svg" width="11" height="16">
    <path fill-rule="evenodd" d="M9.738 7.415L2.095.229a.91.91 0 0 0-1.232 0L.248.808a.782.782 0 0 0 0 1.157L6.66 7.994.248 14.021a.782.782 0 0 0 0 1.157l.615.58a.913.913 0 0 0 1.232 0l7.643-7.186a.782.782 0 0 0 0-1.157z"/>
</svg>
