<svg xmlns="http://www.w3.org/2000/svg" width="78" height="77">
    <path fill-rule="evenodd" d="M72.77 19.523c-3.484-6.006-8.211-10.761-14.181-14.266C52.617 1.753 46.098.001 39.027.001c-7.069 0-13.591 1.752-19.561 5.256-5.971 3.505-10.698 8.26-14.182 14.266C1.799 25.528.057 32.086.057 39.197c0 8.54 2.477 16.221 7.434 23.044 4.956 6.821 11.358 11.542 19.206 14.162.913.169 1.589.05 2.029-.357.44-.408.66-.919.66-1.531l-.026-2.756c-.017-1.735-.025-3.25-.025-4.541l-1.167.203c-.744.137-1.683.195-2.817.178a21.334 21.334 0 0 1-3.526-.357c-1.219-.22-2.351-.731-3.4-1.529-1.048-.8-1.792-1.847-2.232-3.14l-.508-1.174c-.338-.782-.87-1.65-1.598-2.603-.727-.952-1.463-1.599-2.207-1.939l-.355-.255a3.72 3.72 0 0 1-.66-.613 2.78 2.78 0 0 1-.456-.715c-.102-.238-.018-.434.253-.588.271-.153.761-.228 1.472-.228l1.014.153c.677.136 1.514.544 2.513 1.224a8.235 8.235 0 0 1 2.46 2.653c.779 1.396 1.716 2.459 2.817 3.191 1.098.731 2.207 1.097 3.323 1.097s2.08-.086 2.892-.255a9.97 9.97 0 0 0 2.283-.766c.305-2.28 1.134-4.032 2.486-5.256-1.928-.205-3.661-.512-5.201-.919-1.539-.409-3.129-1.072-4.769-1.992-1.641-.918-3.003-2.059-4.085-3.42-1.082-1.36-1.971-3.146-2.664-5.358-.693-2.212-1.04-4.764-1.04-7.656 0-4.118 1.337-7.621 4.009-10.514-1.252-3.096-1.133-6.566.355-10.411.981-.307 2.436-.076 4.364.689 1.928.766 3.34 1.421 4.237 1.965a44.539 44.539 0 0 1 2.157 1.378 35.844 35.844 0 0 1 9.742-1.326c3.349 0 6.597.442 9.745 1.326l1.928-1.224c1.318-.817 2.875-1.566 4.667-2.247 1.793-.679 3.164-.867 4.111-.561 1.522 3.845 1.658 7.316.406 10.412 2.672 2.892 4.008 6.397 4.008 10.514 0 2.892-.347 5.452-1.04 7.68-.693 2.23-1.589 4.015-2.689 5.359-1.099 1.344-2.469 2.476-4.11 3.395-1.641.919-3.231 1.582-4.77 1.991-1.539.407-3.273.715-5.201.919 1.759 1.531 2.639 3.947 2.639 7.247v10.768c0 .612.211 1.122.634 1.53.423.408 1.09.527 2.004.357 7.848-2.619 14.25-7.34 19.206-14.163 4.956-6.821 7.434-14.502 7.434-23.043-.002-7.109-1.745-13.667-5.229-19.672z"/>
</svg>
