<svg xmlns="http://www.w3.org/2000/svg" width="24" height="24">
    <path fill="#DB3430" fill-rule="evenodd" d="M12 0C5.383 0 0 5.383 0 12s5.383 12 12 12 12-5.383 12-12S18.617 0 12 0zm6.225 12.33l-8.8 6a.401.401 0 0 1-.412.023.4.4 0 0 1-.213-.354V6a.4.4 0 0 1 .626-.331l8.799 6a.402.402 0 0 1 0 .661z"/>
</svg>
