<svg xmlns="http://www.w3.org/2000/svg" width="150" height="150">
    <path fill="#FFF" fill-rule="evenodd" d="M75 0C33.645 0 0 33.645 0 75s33.645 75 75 75 75-33.645 75-75S116.355 0 75 0zm38.907 77.065l-55 37.499a2.5 2.5 0 0 1-2.575.146A2.498 2.498 0 0 1 55 112.5v-75a2.503 2.503 0 0 1 3.91-2.065l55 37.5a2.499 2.499 0 0 1-.003 4.13z" opacity=".102"/>
</svg>
