<svg xmlns="http://www.w3.org/2000/svg" width="78" height="78">
    <path fill-rule="evenodd" d="M35.077 72.194V41.478h42.031v36.524l-42.031-5.808zm.001-65.707L77.108.678v36.896h-42.03V6.487zM-.003 41.478h31.605V71.73L-.003 67.361V41.478zm0-30.159l31.605-4.368v30.623H-.003V11.319z"/>
</svg>
