<svg xmlns="http://www.w3.org/2000/svg" width="79" height="78">
    <path fill-rule="evenodd" d="M75.711 78H3.289A3.272 3.272 0 0 1 0 74.732V55.7a3.272 3.272 0 0 1 3.289-3.268A3.272 3.272 0 0 1 6.578 55.7v15.764h65.844V55.7a3.272 3.272 0 0 1 3.289-3.268A3.272 3.272 0 0 1 79 55.7v19.032A3.272 3.272 0 0 1 75.711 78zM41.902 56.309c-.693.833-2.967 1.859-4.821 0L18.17 36.108a3.269 3.269 0 0 1 .177-4.629c1.338-1.218 3.418-1.154 4.66.176l13.204 14.113v-42.5A3.271 3.271 0 0 1 39.5 0a3.271 3.271 0 0 1 3.289 3.268v42.484l13.204-14.113a3.285 3.285 0 0 1 4.643-.176 3.256 3.256 0 0 1 .178 4.629L41.902 56.309z"/>
</svg>
