<svg xmlns="http://www.w3.org/2000/svg" width="66" height="79">
    <path fill-rule="evenodd" d="M63.68 62.921c-2.245-.929-3.205-2.161-3.112-3.999.095-2.147-1.11-3.719-1.682-4.34.346-1.334 1.356-5.951.001-9.961-1.457-4.291-5.904-10.846-10.492-17.289-1.879-2.647-1.968-5.523-2.07-8.853-.099-3.177-.21-6.778-1.964-10.781C42.455 3.339 38.629.84 33.863.84c-2.834 0-5.744.895-7.983 2.455-4.585 3.196-3.979 10.166-3.578 14.777.055.632.107 1.228.137 1.737.267 4.517.024 6.897-.294 7.621-.205.473-1.217 1.819-2.288 3.243-1.107 1.474-2.363 3.143-3.392 4.7-1.228 1.873-2.22 4.735-3.178 7.503-.702 2.025-1.364 3.938-2.009 5.082a6.979 6.979 0 0 0-.664 5.198c-.463.325-1.132.964-1.696 2.169-.682 1.471-2.067 2.261-4.944 2.82-1.323.273-2.235.835-2.712 1.67-.694 1.214-.316 2.74.029 3.783.51 1.533.192 2.504-.385 4.265-.133.407-.284.868-.437 1.375-.241.802-.154 1.53.258 2.166 1.086 1.678 4.258 2.27 7.523 2.66 1.949.233 4.083 1.021 6.147 1.783 2.022.747 4.113 1.518 6.013 1.753.289.036.575.055.851.055 2.87 0 4.166-1.924 4.577-2.714 1.031-.212 4.586-.893 8.25-.984 3.658-.105 7.197.624 8.2.851.315.61 1.146 2.002 2.47 2.719.728.402 1.741.632 2.779.632 1.109 0 3.217-.264 4.886-2.038 1.664-1.781 5.823-4.056 8.859-5.716.678-.371 1.312-.718 1.868-1.031 1.705-.955 2.636-2.32 2.553-3.744-.069-1.184-.844-2.221-2.023-2.709zm-37.763-.343c-.212-1.511-2.136-3.009-4.364-4.745-1.822-1.418-3.887-3.026-4.456-4.388-1.176-2.81-.249-7.749 1.367-10.293.798-1.274 1.451-3.205 2.081-5.073.681-2.017 1.386-4.102 2.174-5.015 1.247-1.425 2.4-4.199 2.604-6.384 1.169 1.126 2.981 2.556 4.655 2.556.258 0 .508-.034.747-.102 1.146-.334 2.83-1.317 4.46-2.268 1.404-.82 3.136-1.831 3.788-1.923 1.118 1.621 7.611 16.137 8.275 20.799.525 3.688-.03 6.738-.309 7.932a5.705 5.705 0 0 0-.773-.056c-1.808 0-2.287.997-2.412 1.593-.321 1.547-.354 6.494-.358 7.606-.654.839-3.961 4.792-8.71 5.502-1.934.284-3.74.428-5.368.428-1.391 0-2.279-.109-2.648-.165l-2.386-2.758c.941-.469 1.881-1.459 1.633-3.246zm3.028-45.476a4.903 4.903 0 0 0-.22.105 4.411 4.411 0 0 0-.049-.495c-.261-1.515-1.255-2.614-2.364-2.614-.082 0-.165.006-.256.02-.659.111-1.177.611-1.461 1.321.249-1.557 1.123-2.711 2.159-2.711 1.218 0 2.246 1.658 2.246 3.618 0 .248-.018.494-.055.756zm9.458 1.168c.111-.358.172-.746.172-1.149 0-1.778-1.117-3.171-2.543-3.171-1.393 0-2.527 1.423-2.527 3.171 0 .12.006.239.017.358l-.216-.083a4.91 4.91 0 0 1-.242-1.525c0-2.127 1.346-3.856 3-3.856 1.653 0 2.999 1.729 2.999 3.856 0 .884-.242 1.728-.66 2.399zm-1.219 4.139c-.024.107-.075.154-.636.449-.283.149-.635.334-1.076.605l-.295.181c-1.184.725-3.956 2.423-4.709 2.523-.511.069-.827-.131-1.538-.619-.161-.11-.331-.228-.513-.345-1.282-.85-2.106-1.785-2.199-2.151.418-.327 1.453-1.143 1.984-1.627 1.076-1.01 2.159-1.69 2.695-1.69.029 0 .054.002.081.007.63.112 2.184.739 3.318 1.196.525.211.978.394 1.297.51 1.004.348 1.527.794 1.591.961zm9.021 47.246c.566-2.581 1.219-6.093 1.113-8.162a51.254 51.254 0 0 0-.105-1.477c-.074-.926-.185-2.301-.071-2.709a.399.399 0 0 1 .076-.027c.004 1.183.258 3.543 2.127 4.366.557.246 1.194.37 1.892.37 1.872 0 3.949-.927 4.8-1.787.5-.506.922-1.125 1.217-1.615.065.191.104.44.083.762-.111 1.745.729 4.061 2.327 4.914l.232.124c.57.301 2.081 1.103 2.106 1.483 0 .001-.013.045-.097.124-.379.35-1.712 1.037-3.001 1.702-2.286 1.179-4.878 2.516-6.042 3.753-1.639 1.742-3.492 2.912-4.611 2.912a1.2 1.2 0 0 1-.367-.052c-1.216-.383-2.217-2.155-1.679-4.681zM4.768 63.07c-.124-.586-.222-1.048-.116-1.496.076-.333 1.699-.689 2.392-.84.975-.214 1.982-.435 2.641-.839.892-.545 1.374-1.551 1.8-2.438.308-.642.626-1.305 1.005-1.523a.208.208 0 0 1 .116-.027c.71 0 2.198 1.506 3.056 2.855.218.339.621 1.021 1.087 1.809 1.395 2.357 3.304 5.586 4.301 6.668.899.973 2.354 2.843 1.996 4.447-.262 1.244-1.657 2.256-1.986 2.48a2.035 2.035 0 0 1-.441.041c-1.909 0-5.687-1.604-7.717-2.466l-.301-.128c-1.133-.48-2.984-.782-4.773-1.075-1.424-.233-3.374-.552-3.698-.84-.262-.296.042-1.261.31-2.113.193-.612.393-1.245.502-1.907.155-1.056-.028-1.917-.174-2.608z"/>
</svg>
