<svg xmlns="http://www.w3.org/2000/svg" width="61" height="61">
    <path fill="#FFF" fill-rule="evenodd" d="M30.5 61C13.681 61 0 47.318 0 30.499 0 13.681 13.681 0 30.5 0 47.318 0 61 13.681 61 30.499 61 47.318 47.318 61 30.5 61zm0-58.399c-15.387 0-27.899 12.512-27.899 27.898 0 15.388 12.512 27.899 27.899 27.899s27.898-12.511 27.898-27.899c0-15.386-12.511-27.898-27.898-27.898zM42.725 31.57L25.906 43.073a1.29 1.29 0 0 1-2.029-1.07V18.997c.112-1.457 1.506-1.457 2.029-1.071l16.819 11.503c1.033.809.436 1.88 0 2.141zM26.479 21.449V39.55l13.208-9.051-13.208-9.05z"/>
</svg>
