<svg xmlns="http://www.w3.org/2000/svg" width="157" height="132">
    <path fill="#FFF" fill-rule="evenodd" d="M156.991 129.626a2.342 2.342 0 0 1-2.37 2.374H2.369a2.342 2.342 0 0 1-2.37-2.374 2.34 2.34 0 0 1 2.37-2.372h11.108V92.696a2.342 2.342 0 0 1 2.37-2.373h21.919a2.342 2.342 0 0 1 2.37 2.373v34.558h7.998V78.755a2.34 2.34 0 0 1 2.369-2.373h21.772a2.34 2.34 0 0 1 2.369 2.373v48.499h7.998v-44.94a2.341 2.341 0 0 1 2.37-2.373h21.92a2.34 2.34 0 0 1 2.369 2.373v44.94h7.998v-68.67a2.34 2.34 0 0 1 2.369-2.373h21.772a2.341 2.341 0 0 1 2.37 2.373v68.67h10.959c1.333 0 2.37 1.038 2.222 2.372zM35.248 95.07H18.216v32.184h17.032V95.07zm34.657-13.942H52.873v46.126h17.032V81.128zm34.509 3.559H87.382v42.567h17.032V84.687zm34.656-23.73h-17.032v66.297h17.032V60.957zm-8.59-17.798a21.411 21.411 0 0 1-21.475-21.506C109.005 9.64 118.484 0 130.48 0c11.997 0 21.624 9.492 21.624 21.506 0 12.012-9.776 21.653-21.624 21.653zm0-38.413c-9.183 0-16.884 7.415-16.884 16.76 0 9.343 7.554 16.907 16.884 16.907 9.331 0 16.884-7.416 16.884-16.76 0-9.343-7.553-16.907-16.884-16.907zm6.369 24.175c-.297.445-.445.89-.741 1.187-.296.445-.593.741-.888 1.038-.445.296-.741.593-1.185.741-.445.297-.889.445-1.333.593h-.148v3.115H128.999v-2.966h-.296c-.445 0-.741 0-1.185-.149-.444-.148-.889-.148-1.185-.296-.296 0-.741-.148-1.036-.297-.445-.148-.741-.296-1.334-.148l-.444-.148v-.445l.296-2.67.148-1.038.889.445c.148 0 .296.148.445.148.147 0 .295.148.444.148.296.149.592.149.888.297.297.148.593.297.889.297.148 0 .444.148.74.148H130.184c.296 0 .592-.148.74-.148.149-.149.445-.149.593-.297.296-.148.444-.297.593-.445l.444-.445c.148-.148.296-.445.296-.593v-.742c0-.297-.148-.593-.148-.741-.148-.297-.148-.445-.297-.594l-.444-.445c-.148 0-.296-.148-.444-.296-.148-.148-.444-.148-.593-.297-.148-.148-.444-.296-.592-.296-.296-.149-.74-.297-1.185-.445-.296-.149-.74-.445-1.185-.593-.296-.149-.74-.297-1.036-.594-.445-.148-.741-.444-1.037-.742-.297-.296-.445-.593-.741-.889-.148-.297-.444-.742-.592-1.038-.296-.445-.296-.742-.444-1.187-.149-.445-.149-.742-.149-1.187 0-.444 0-1.038.149-1.483l.444-1.335c.148-.445.296-.89.592-1.186.296-.445.593-.742.889-1.038.296-.297.592-.593 1.037-.742.444-.296.888-.445 1.333-.593h.148V7.564h3.555v2.817h.147c.297 0 .445.149.741.149s.592.148.741.148c.296 0 .444.149.592.149.148 0 .444.148.592.148l.592.148v.594l-.295 2.372-.149.891-.74-.298c-.148 0-.296-.147-.592-.147-.149 0-.445-.149-.593-.149-.148 0-.444-.148-.741-.148-.295-.149-.444-.149-.74-.149h-.889c-.296 0-.444 0-.74.149-.297 0-.592.148-.741.297l-.444.445c-.148.148-.148.444-.296.593 0 .148-.148.445-.148.593v.741c0 .149 0 .445.148.594 0 .297.148.444.296.593l.444.445c.149.148.444.148.593.297.148.148.444.148.592.296.148.149.444.297.593.297.296.148.74.296 1.184.445.445.148.741.445 1.185.593.297.148.741.297 1.037.593.444.148.741.446 1.036.742.297.297.445.593.741.89.296.296.445.741.593 1.038.296.445.296.741.444 1.186.148.445.148.742.148 1.187 0 .593 0 1.038-.148 1.483l-.444 1.335zm-16.736 17.056c.74 1.038.592 2.67-.445 3.412L94.639 69.263c-.593.445-1.63.593-2.37.296L61.167 56.656 29.028 79.645c-.444.296-.888.445-1.333.445-.74 0-1.481-.297-1.926-1.039-.74-1.038-.444-2.521.593-3.262l33.176-23.731c.592-.445 1.481-.593 2.221-.297l30.955 12.903 23.992-19.132c1.037-.742 2.666-.593 3.407.445z" opacity=".051"/>
</svg>
