<svg xmlns="http://www.w3.org/2000/svg" width="152" height="123">
    <path fill="#F7F6F6" fill-rule="evenodd" d="M149.273 123H85.202c-1.534 0-2.727-1.175-2.727-2.685V2.684c0-1.51 1.193-2.685 2.727-2.685h64.071c1.363 0 2.556 1.175 2.726 2.518v117.798c0 1.51-1.192 2.685-2.726 2.685zM146.717 5.201H87.928v10.404h58.789V5.201zm0 15.606H87.928v78.197h58.789V20.807zm0 83.399H87.928v13.424h58.789v-13.424zm-29.48 11.746c-3.067 0-5.623-2.517-5.623-5.537 0-3.021 2.556-5.538 5.623-5.538s5.623 2.517 5.623 5.538c0 3.02-2.556 5.537-5.623 5.537zm21.641-76.351h-35.103l6.476 5.034c1.192.839 1.363 2.517.511 3.692-.511.671-1.193 1.007-2.045 1.007a2.915 2.915 0 0 1-1.704-.503l-12.61-9.733c-.17 0-.17-.168-.17-.168l-.512-.504c0-.167-.17-.167-.17-.335 0 0-.17 0-.17-.168v-.671-.336V36.077c0-.335.17-.503.34-.839 0-.168.171-.168.171-.168l.341-.335 12.61-9.733c1.192-.839 2.896-.671 3.748.504.852 1.174.682 2.853-.51 3.692l-6.476 5.033h35.273c1.534 0 2.727 1.175 2.727 2.685s-1.193 2.685-2.727 2.685zm-28.116 40.273c.511 0 1.363 0 2.045.839 1.533 1.678 3.578 2.517 6.134 2.685h.852c1.363 0 2.556-.336 3.408-.839.852-.503 1.193-1.174 1.193-2.349 0-.839-.341-1.511-1.193-2.014-.852-.671-2.045-1.175-3.408-1.678-1.363-.503-2.897-1.007-4.43-1.678-1.534-.671-2.897-1.678-4.09-3.02-1.192-1.343-1.704-3.189-1.704-5.202 0-2.686.852-4.867 2.727-6.209 1.193-1.007 2.726-1.51 4.43-1.846v-3.524c0-1.51 1.193-2.685 2.726-2.685 1.534 0 2.727 1.175 2.727 2.685v3.524c2.726.503 4.941 1.846 6.475 4.027.341.503.512 1.007.512 1.678 0 .672-.171 1.343-.682 1.847-1.022 1.174-2.726 1.174-3.749 0-1.534-1.511-3.238-2.183-5.453-2.183-4.09 0-4.09 1.847-4.09 2.686s.341 1.51 1.364 2.181c.852.671 2.044 1.175 3.408 1.678a48.03 48.03 0 0 1 4.43 1.678c1.534.671 2.897 1.678 3.749 2.853a8.16 8.16 0 0 1 1.704 5.034c0 2.853-1.023 5.202-3.067 6.712-1.193 1.007-2.897 1.678-4.772 2.014v3.524c0 1.51-1.192 2.685-2.726 2.685s-2.726-1.175-2.726-2.685v-3.524c-1.193-.168-2.556-.672-3.579-1.175-1.874-1.006-3.408-2.181-4.26-3.356a3.209 3.209 0 0 1-.511-1.678c0-.671.171-1.342.681-1.846.512-.503 1.194-.839 1.875-.839zM66.798 123H2.727C1.193 123 0 121.825 0 120.315V2.684C0 1.174 1.193-.001 2.727-.001h64.071c1.534 0 2.726 1.175 2.726 2.518v117.798c0 1.51-1.192 2.685-2.726 2.685zM64.071 5.201H5.453v10.404h58.618V5.201zm0 15.606H5.453v78.197h58.618V20.807zm0 83.399H5.453v13.424h58.618v-13.424zm-29.309.671c3.067 0 5.623 2.517 5.623 5.538 0 3.02-2.556 5.537-5.623 5.537s-5.623-2.517-5.623-5.537c0-3.021 2.556-5.538 5.623-5.538zm-21.3-24.5h34.933l-6.476-5.034c-1.193-.839-1.363-2.517-.511-3.691.852-1.175 2.556-1.343 3.749-.504l12.61 9.733c.17 0 .17.168.17.168l.511.503c0 .168.171.168.171.336 0 0 .17 0 .17.168v1.51c0 .335-.17.503-.341.839 0 .168-.17.168-.17.168l-.341.335-12.61 9.733c-.511.336-1.193.503-1.704.503-.682 0-1.534-.335-2.045-1.006-.852-1.175-.681-2.853.511-3.692l6.476-5.034H13.462c-1.534 0-2.727-1.175-2.727-2.35 0-1.51 1.193-2.685 2.727-2.685zm27.094-15.101v2.684c0 1.51-1.193 2.685-2.727 2.685-1.533 0-2.726-1.175-2.726-2.685v-2.517h-3.408v2.517c0 1.51-1.193 2.685-2.727 2.685-1.533 0-2.726-1.175-2.726-2.685v-2.517h-3.578c-1.534 0-2.727-1.175-2.727-2.685s1.193-2.685 2.727-2.685v.503h3.578v-9.732c-1.363 0-2.556-1.174-2.556-2.517s1.193-2.517 2.556-2.517v-9.733h-3.578c-1.534 0-2.727-1.174-2.727-2.685 0-1.51 1.193-2.685 2.727-2.685h3.578v-2.684c0-1.511 1.193-2.686 2.726-2.686 1.534 0 2.727 1.175 2.727 2.686v2.684h3.408v-2.684c0-1.511 1.193-2.686 2.726-2.686 1.534 0 2.727 1.175 2.727 2.686v2.684c5.112.504 9.201 4.699 9.201 9.901 0 2.853-1.362 5.537-3.408 7.383 2.046 1.846 3.408 4.363 3.408 7.384 0 5.201-4.089 9.397-9.201 9.901zm-1.363-29.702h-7.669v9.733h7.669c2.726 0 4.941-2.182 4.941-4.867s-2.215-4.866-4.941-4.866zm0 14.935h-7.669v9.732h7.669c2.726 0 4.941-2.181 4.941-4.866 0-2.685-2.215-4.866-4.941-4.866z" opacity=".051"/>
</svg>
