<svg xmlns="http://www.w3.org/2000/svg" width="136" height="122">
    <path fill="#F7F6F6" fill-rule="evenodd" d="M0 121.999V0h48.767l.673.959.002.003 10.681 15.15H136v105.887H0zM131.467 20.716H63.371l8.113 11.51h59.983v-11.51zm0 16.114h-61.2v-.072a2.258 2.258 0 0 1-1.843-.961L57.793 20.716h-.027L46.433 4.604h-41.9v112.792h126.934V36.83zM54.399 59.849c0-7.617 6.1-13.812 13.601-13.812 7.5 0 13.6 6.195 13.6 13.812v9.207h9.067v36.831H45.333V69.056h9.066v-9.207zm22.667 0c0-5.078-4.066-9.208-9.066-9.208-5.001 0-9.067 4.13-9.067 9.208v9.207h18.133v-9.207zM49.867 73.66v27.623h36.266V73.66H49.867zM68 75.962c5 0 9.066 4.13 9.066 9.207 0 4.28-2.898 7.852-6.799 8.881v2.629c0 1.273-1.014 2.302-2.267 2.302-1.254 0-2.267-1.029-2.267-2.302V94.05a9.17 9.17 0 0 1-6.8-8.881c0-5.077 4.066-9.207 9.067-9.207zm0 13.811c2.5 0 4.533-2.065 4.533-4.604 0-2.538-2.033-4.603-4.533-4.603-2.501 0-4.534 2.065-4.534 4.603 0 2.539 2.033 4.604 4.534 4.604z" opacity=".051"/>
</svg>
