<svg xmlns="http://www.w3.org/2000/svg" width="727" height="297">
    <path fill="#FFF" fill-rule="evenodd" d="M701.612 135.484l-51.12-80.64v80.64h-30.96V1.924h24.66l51.121 80.82V1.924h31.139v133.56h-24.84zM563.015 1.924h31.14v133.56h-31.14V1.924zm-45.629 129.239c-7.982 3.6-18.63 5.401-31.95 5.401s-23.971-1.801-31.95-5.401c-7.982-3.6-14.012-10.287-18.09-20.069-4.081-9.78-6.12-23.91-6.12-42.39 0-18.479 2.039-32.639 6.12-42.48 4.078-9.838 10.108-16.561 18.09-20.161 7.979-3.6 18.63-5.399 31.95-5.399s23.968 1.799 31.95 5.399c7.979 3.6 14.009 10.323 18.09 20.161 4.078 9.841 6.12 24.001 6.12 42.48 0 18.48-2.042 32.61-6.12 42.39-4.081 9.782-10.111 16.469-18.09 20.069zm-9.09-88.2c-1.44-5.638-3.87-9.449-7.29-11.43-3.42-1.98-8.612-2.969-15.57-2.969-6.84 0-11.97.989-15.39 2.969-3.42 1.981-5.881 5.792-7.38 11.43-1.502 5.642-2.25 14.221-2.25 25.741 0 11.16.72 19.561 2.16 25.199 1.44 5.642 3.898 9.513 7.38 11.611 3.479 2.101 8.64 3.15 15.48 3.15s11.998-1.049 15.48-3.15c3.479-2.098 5.94-5.969 7.38-11.611 1.44-5.638 2.16-14.039 2.16-25.199 0-11.52-.72-20.099-2.16-25.741zm-164.88 88.2c-6.962-3.6-12.331-10.349-16.11-20.25-3.781-9.899-5.671-24.089-5.671-42.57 0-17.879 1.949-31.739 5.85-41.58 3.899-9.838 9.389-16.65 16.47-20.429 7.08-3.78 15.959-5.67 26.64-5.67 9.119 0 17.34.66 24.66 1.98 7.318 1.321 13.38 2.941 18.18 4.86v24.119c-11.041-2.038-23.102-3.059-36.18-3.059-6.479 0-11.401.989-14.759 2.969-3.362 1.981-5.822 5.792-7.381 11.43-1.561 5.642-2.34 14.162-2.34 25.561 0 11.159.659 19.53 1.98 25.11 1.319 5.579 3.718 9.48 7.2 11.7 3.479 2.221 8.64 3.33 15.48 3.33 16.2 0 28.199-.599 36-1.801v24.121c-10.201 3.721-24.541 5.58-43.019 5.58-11.042 0-20.042-1.801-27-5.401zM224.797 54.844v80.64h-30.96V1.924h24.66l51.12 80.82V1.924h31.14v133.56h-24.84l-51.12-80.64zm-26.457 240.64l-6.84-24.3h-42.48l-6.66 24.3h-32.04L151 161.924h38.88l40.68 133.56h-32.22zm-28.08-106.92l-14.04 54.72h28.08l-14.04-54.72zM137.32 1.924h31.14v133.56h-31.14V1.924zm-95.759 133.56L.881 1.924h32.22l28.08 99.9 28.08-99.9h31.86l-40.68 133.56h-38.88zm-12.96 30.85c7.079-3.78 15.958-5.67 26.64-5.67 9.118 0 17.339.661 24.66 1.98 7.318 1.321 13.379 2.941 18.18 4.86v24.119c-11.042-2.038-23.102-3.059-36.18-3.059-6.48 0-11.402.989-14.76 2.969-3.361 1.981-5.822 5.792-7.38 11.43-1.561 5.642-2.34 14.162-2.34 25.561 0 11.159.658 19.53 1.98 25.11 1.319 5.579 3.718 9.48 7.2 11.699 3.479 2.222 8.64 3.331 15.48 3.331 16.2 0 28.198-.599 36-1.801v24.121c-10.201 3.721-24.542 5.58-43.02 5.58-11.042 0-20.042-1.801-27-5.401-6.961-3.6-12.33-10.349-16.11-20.25-3.78-9.899-5.671-24.089-5.671-42.57 0-17.879 1.95-31.739 5.851-41.58 3.898-9.838 9.388-16.65 16.47-20.429zm259.559-5.491c12.599 0 26.28 1.682 41.039 5.041v24.479c-16.68-1.079-29.1-1.62-37.26-1.62-6.361 0-11.101.872-14.22 2.611-3.122 1.74-4.679 4.95-4.679 9.629v2.521c0 7.441 4.499 11.159 13.5 11.159h12.419c11.881 0 20.97 3.24 27.27 9.72 6.301 6.48 9.45 15.002 9.45 25.56v6.661c0 10.681-1.89 18.93-5.67 24.75-3.78 5.821-9.09 9.809-15.93 11.97-6.839 2.16-15.542 3.24-26.1 3.24-7.442 0-14.911-.422-22.41-1.26-7.501-.839-14.191-2.039-20.07-3.6v-24.66c11.399 1.079 25.02 1.62 40.86 1.62 6.72 0 11.701-.81 14.941-2.43 3.239-1.62 4.859-4.529 4.859-8.731v-3.419c0-3.12-1.021-5.55-3.06-7.29-2.041-1.739-4.741-2.611-8.1-2.611H284.56c-13.801 0-24.093-3.029-30.871-9.089-6.781-6.058-10.17-15.868-10.17-29.43v-6.301c0-12.96 3.78-22.617 11.34-28.979 7.56-6.359 18.659-9.541 33.301-9.541zm100.258 54.361h44.46v-53.28h31.14v133.56h-31.14v-52.38h-44.46v52.38h-31.14v-133.56h31.14v53.28z" opacity=".102"/>
</svg>
