<svg xmlns="http://www.w3.org/2000/svg" width="486" height="92">
    <path fill="#FFF" fill-rule="evenodd" d="M470.762 90.42l-37.08-58.56v58.56h-17.88V1.62h14.28l37.2 58.56V1.62h17.76v88.8h-14.28zm-86.699-2.76c-5.16 2.321-12.101 3.48-20.82 3.48-8.72 0-15.68-1.159-20.88-3.48-5.201-2.319-9.12-6.72-11.76-13.2-2.64-6.48-3.96-15.919-3.96-28.32 0-12.399 1.339-21.859 4.02-28.38 2.68-6.519 6.619-10.98 11.82-13.38 5.2-2.4 12.12-3.6 20.76-3.6 8.719 0 15.66 1.2 20.82 3.6 5.16 2.4 9.06 6.861 11.7 13.38 2.64 6.521 3.96 15.981 3.96 28.38 0 12.401-1.32 21.84-3.96 28.32-2.64 6.48-6.54 10.881-11.7 13.2zm-3.78-60.42c-1.121-4.119-2.981-6.9-5.58-8.34-2.6-1.44-6.42-2.16-11.46-2.16-4.961 0-8.741.72-11.34 2.16-2.6 1.44-4.5 4.241-5.7 8.4-1.2 4.161-1.8 10.44-1.8 18.84 0 8.241.559 14.4 1.68 18.48 1.12 4.08 2.98 6.861 5.58 8.34 2.599 1.481 6.46 2.22 11.58 2.22 5.04 0 8.86-.739 11.46-2.22 2.599-1.479 4.459-4.279 5.58-8.4 1.12-4.119 1.68-10.26 1.68-18.42 0-8.479-.56-14.779-1.68-18.9zM293.405 1.62h17.76v88.8h-17.76V1.62zm-29.639 87.42c-4.481 1.399-10.04 2.1-16.68 2.1-4.56 0-9.44-.281-14.64-.84-5.201-.559-9.6-1.279-13.2-2.16V74.1c7.12.72 16.12 1.08 27 1.08 4.879 0 8.56-.66 11.04-1.98 2.479-1.32 3.72-3.66 3.72-7.02v-3.24c0-2.64-.78-4.659-2.34-6.06-1.56-1.399-3.78-2.1-6.66-2.1h-7.56c-8.801 0-15.38-1.92-19.74-5.76-4.361-3.84-6.54-10.119-6.54-18.84v-4.32c0-16.639 9.559-24.96 28.68-24.96 4.48 0 9.12.3 13.92.9 4.8.6 9.12 1.301 12.96 2.1v14.04c-10.961-.72-19.241-1.08-24.84-1.08-4.56 0-8 .701-10.32 2.1-2.321 1.401-3.48 3.981-3.48 7.74v2.4c0 3.041.859 5.261 2.58 6.66 1.72 1.401 4.339 2.1 7.86 2.1h8.76c7.68 0 13.54 2.1 17.58 6.3 4.039 4.2 6.06 9.701 6.06 16.5v5.04c0 6.72-1.241 11.94-3.72 15.66-2.48 3.72-5.96 6.281-10.44 7.68zm-73.079 0c-4.481 1.399-10.04 2.1-16.68 2.1-4.56 0-9.44-.281-14.64-.84-5.201-.559-9.6-1.279-13.2-2.16V74.1c7.12.72 16.12 1.08 27 1.08 4.879 0 8.56-.66 11.04-1.98 2.479-1.32 3.72-3.66 3.72-7.02v-3.24c0-2.64-.78-4.659-2.34-6.06-1.56-1.399-3.78-2.1-6.66-2.1h-7.56c-8.801 0-15.38-1.92-19.74-5.76-4.361-3.84-6.54-10.119-6.54-18.84v-4.32c0-16.639 9.559-24.96 28.68-24.96 4.48 0 9.12.3 13.92.9 4.8.6 9.12 1.301 12.96 2.1v14.04c-10.961-.72-19.241-1.08-24.84-1.08-4.56 0-8 .701-10.32 2.1-2.321 1.401-3.48 3.981-3.48 7.74v2.4c0 3.041.859 5.261 2.58 6.66 1.72 1.401 4.339 2.1 7.86 2.1h8.76c7.68 0 13.54 2.1 17.58 6.3 4.039 4.2 6.06 9.701 6.06 16.5v5.04c0 6.72-1.241 11.94-3.72 15.66-2.48 3.72-5.96 6.281-10.44 7.68zM111.729 1.62h17.76v88.8h-17.76V1.62zM72.37 32.34L56.89 90.42H40.21L24.73 33.06l-6.6 57.36H.97l10.32-88.8h17.04l20.4 68.04L69.01 1.62h16.92l10.44 88.8H79.21l-6.84-58.08z"/>
</svg>
