<svg xmlns="http://www.w3.org/2000/svg" width="40" height="40">
    <path fill="#FFF" fill-rule="evenodd" d="M20 40.001C8.954 40.001 0 31.046 0 20 0 8.954 8.954-.001 20-.001S40.001 8.954 40.001 20c0 11.046-8.955 20.001-20.001 20.001zm11.134-23.433c-.828 0-1.595.334-2.182.9-2.159-1.428-5.082-2.339-8.318-2.455l1.768-5.589 4.785 1.127c-.001.024-.007.045-.007.07a2.592 2.592 0 0 0 2.59 2.589 2.593 2.593 0 0 0 2.589-2.589 2.592 2.592 0 0 0-2.589-2.589c-1.096 0-2.03.687-2.407 1.65l-5.159-1.214a.443.443 0 0 0-.525.297l-1.97 6.233c-3.385.04-6.45.956-8.704 2.426a3.162 3.162 0 0 0-2.139-.855 3.168 3.168 0 0 0-3.165 3.166c0 1.131.607 2.163 1.568 2.727a5.646 5.646 0 0 0-.101 1.017c0 4.682 5.729 8.489 12.772 8.489 7.044 0 12.774-3.807 12.774-8.489 0-.325-.034-.644-.088-.959a3.14 3.14 0 0 0 1.674-2.785 3.17 3.17 0 0 0-3.166-3.167zm1.263 5.058c-.458-1.364-1.408-2.604-2.725-3.633a2.265 2.265 0 0 1 1.461-.538 2.283 2.283 0 0 1 2.28 2.28 2.26 2.26 0 0 1-1.016 1.891zm-8.05 2.166a1.885 1.885 0 0 1 0-3.768 1.885 1.885 0 0 1 0 3.768zm.226 3.077a.443.443 0 0 1-.001.627c-.95.95-2.44 1.411-4.557 1.411-.005 0-.009-.004-.015-.004s-.01.004-.016.004c-2.116 0-3.607-.461-4.556-1.411a.444.444 0 0 1 .627-.627c.775.775 2.059 1.152 3.929 1.152.006 0 .01.003.016.003s.01-.003.015-.003c1.871 0 3.156-.377 3.93-1.152a.445.445 0 0 1 .628 0zm-8.913-3.077a1.884 1.884 0 1 1 0-3.769 1.884 1.884 0 0 1 0 3.769zM29.769 8.918a1.704 1.704 0 0 1 0 3.406 1.706 1.706 0 0 1-1.704-1.703c0-.939.765-1.703 1.704-1.703zM7.51 21.559a2.271 2.271 0 0 1-.922-1.824 2.282 2.282 0 0 1 2.278-2.28c.512 0 1.004.18 1.404.494-1.325 1.022-2.286 2.253-2.76 3.61z"/>
</svg>
