<svg xmlns="http://www.w3.org/2000/svg" width="41" height="41">
  <path data-name="-e-ico_linkedin" d="M20.5 0A20.5 20.5 0 1 0 41 20.5 20.5 20.5 0 0 0 20.5 0zm-5.12 30.43h-5.13V12.492h5.13V30.43zm-2.41-19.038a2.4 2.4 0 1 1 2.41-2.4 2.4 2.4 0 0 1-2.41 2.4zM33.31 30.43h-5.12V19.339c0-1.3-.37-2.208-1.97-2.208a3.075 3.075 0 0 0-3.16 2.208V30.43h-5.12V12.492h5.12v1.714a8.626 8.626 0 0 1 5.13-1.711c1.66 0 5.12 1 5.12 7V30.43z" fill="#fff" fill-rule="evenodd"/>
</svg>
