<svg xmlns="http://www.w3.org/2000/svg" width="115" height="115">
    <path fill="#1B1B1B" fill-rule="evenodd" d="M114.788 62.424H77.156l2.658-5.425h35.18c.001.167.006.333.006.501a58.1 58.1 0 0 1-.212 4.924zM91.357 33.439c.425-.842-.106-1.301-1.169-1.301H79.559c-.85 0-1.594.306-1.806.918L63.935 62.672c-2.126 4.668-4.145 9.413-6.27 13.928h-.426c-1.913-4.438-4.038-9.413-6.164-13.928l-6.798-14.458-.095-.203-7.031-14.955c-.212-.612-.85-.918-1.7-.918H24.822c-1.169 0-1.594.459-1.275 1.301l7.139 14.572H.784C5.308 20.77 28.976 0 57.5 0s52.192 20.77 56.716 48.011H84.217l7.14-14.572zM37.748 62.424H.212A58.1 58.1 0 0 1 0 57.5c0-.168.005-.334.006-.501H35.09l2.658 5.425zm11.52 23.513c.425.612.956.918 1.807.918h12.86c.851 0 1.382-.306 1.701-.918l7.116-14.525h40.55C107.08 96.446 84.459 115 57.5 115S7.92 96.446 1.698 71.412h40.454l7.116 14.525z"/>
</svg>
