<svg xmlns="http://www.w3.org/2000/svg" width="62" height="53">
    <path fill="#F9CD3D" fill-rule="evenodd" d="M61.06 53H.935A.932.932 0 0 1 0 52.047c0-.536.409-.953.935-.953h4.387V37.219c0-.536.41-.953.936-.953h8.656c.526 0 .936.417.936.953v13.875h3.158V31.621c0-.536.41-.953.936-.953h8.597c.527 0 .936.417.936.953v19.473h3.158V33.05c0-.536.41-.952.936-.952h8.656c.527 0 .936.416.936.952v18.044h3.159V23.522c0-.536.409-.952.935-.952h8.598c.526 0 .936.416.936.952v27.572h4.328c.527 0 .936.417.877.953a.932.932 0 0 1-.936.953zM13.92 38.171H7.194v12.923h6.726V38.171zm13.685-5.597H20.88v18.52h6.725v-18.52zm13.628 1.429h-6.726v17.091h6.726V34.003zm13.686-9.528h-6.726v26.619h6.726V24.475zm-3.392-7.146c-4.679 0-8.481-3.811-8.481-8.635S46.789 0 51.527 0c4.738 0 8.539 3.811 8.539 8.635 0 4.823-3.86 8.694-8.539 8.694zm0-15.423c-3.626 0-6.668 2.977-6.668 6.729 0 3.751 2.983 6.788 6.668 6.788 3.684 0 6.668-2.977 6.668-6.729 0-3.752-2.984-6.788-6.668-6.788zm2.515 9.706c-.117.178-.175.357-.293.476-.116.179-.233.298-.35.417-.176.12-.293.239-.468.298a2.046 2.046 0 0 1-.527.238h-.058v1.251h-1.404V13.1h-.117c-.175 0-.292 0-.468-.059-.175-.059-.351-.059-.468-.119-.116 0-.292-.059-.409-.119-.175-.059-.293-.119-.526-.059l-.176-.06v-.179l.117-1.071.059-.417.351.178c.058 0 .117.06.175.06.058 0 .117.059.175.059.118.06.234.06.351.12.117.059.234.119.351.119.059 0 .176.059.293.059h.76c.117 0 .234-.059.293-.059.058-.06.175-.06.233-.119.118-.06.176-.12.234-.179l.176-.179a.458.458 0 0 0 .117-.238v-.298c0-.119-.059-.238-.059-.297-.058-.119-.058-.179-.117-.239l-.175-.178c-.058 0-.117-.06-.176-.12-.058-.059-.175-.059-.233-.119a.447.447 0 0 0-.235-.119A4.057 4.057 0 0 0 51 9.289c-.116-.059-.292-.178-.467-.238-.117-.06-.293-.119-.41-.238-.175-.059-.292-.178-.409-.297-.117-.12-.176-.239-.292-.358-.059-.119-.176-.298-.235-.417-.117-.179-.117-.297-.175-.476-.058-.179-.058-.298-.058-.477 0-.178 0-.417.058-.595l.175-.536c.059-.179.118-.357.235-.477.116-.178.233-.297.351-.417.116-.118.233-.237.409-.297a2.04 2.04 0 0 1 .526-.238h.059V3.037h1.403v1.131h.059c.117 0 .175.06.292.06.117 0 .234.059.293.059.117 0 .175.06.234.06.058 0 .175.06.233.06l.235.059v.238l-.117.953-.059.358-.292-.12c-.059 0-.117-.059-.234-.059-.059 0-.176-.06-.234-.06-.059 0-.176-.059-.293-.059-.117-.06-.175-.06-.292-.06h-.351c-.117 0-.176 0-.292.06a.443.443 0 0 0-.293.119l-.175.179c-.059.059-.059.178-.117.237 0 .06-.059.179-.059.238v.298c0 .06 0 .179.059.239 0 .119.058.178.117.238l.175.179c.059.059.176.059.234.118.059.06.175.06.234.119.059.06.176.12.234.12.117.059.293.119.468.178.175.06.292.179.468.239.117.059.292.119.409.238.175.06.293.179.41.298.117.119.175.237.292.357.117.119.176.298.234.417.117.178.117.298.175.476.059.179.059.298.059.476 0 .239 0 .417-.059.596l-.175.536zm-6.609 6.849c.292.416.234 1.071-.176 1.369l-9.884 7.98c-.234.179-.643.238-.936.119l-12.282-5.181-12.692 9.23a.925.925 0 0 1-.526.179c-.293 0-.585-.119-.761-.417-.292-.417-.175-1.012.234-1.31l13.101-9.528a.92.92 0 0 1 .878-.119l12.224 5.181 9.475-7.682c.409-.298 1.053-.238 1.345.179z"/>
</svg>
